<svg width="24" height="25" viewBox="0 0 24 25" fill="none"
  xmlns="http://www.w3.org/2000/svg">
  <path d="M20.4 24.5H3.59995C2.27447 24.5 1.19995 23.4255 1.19995 22.1V5.3C1.19995 3.97452 2.27447 2.9 3.59995 2.9H5.99995V0.5H8.39995V2.9H15.6V0.5H18V2.9H20.4C21.7254 2.9 22.8 3.97452 22.8 5.3V22.1C22.8 23.4255 21.7254 24.5 20.4 24.5ZM3.59995 10.1V22.1H20.4V10.1H3.59995ZM3.59995 5.3V7.7H20.4V5.3H3.59995ZM18 19.7H15.6V17.3H18V19.7ZM13.2 19.7H10.8V17.3H13.2V19.7ZM8.39995 19.7H5.99995V17.3H8.39995V19.7ZM18 14.9H15.6V12.5H18V14.9ZM13.2 14.9H10.8V12.5H13.2V14.9ZM8.39995 14.9H5.99995V12.5H8.39995V14.9Z" fill="white"/>
  <path d="M20.4 24.5H3.59995C2.27447 24.5 1.19995 23.4255 1.19995 22.1V5.3C1.19995 3.97452 2.27447 2.9 3.59995 2.9H5.99995V0.5H8.39995V2.9H15.6V0.5H18V2.9H20.4C21.7254 2.9 22.8 3.97452 22.8 5.3V22.1C22.8 23.4255 21.7254 24.5 20.4 24.5ZM3.59995 10.1V22.1H20.4V10.1H3.59995ZM3.59995 5.3V7.7H20.4V5.3H3.59995ZM18 19.7H15.6V17.3H18V19.7ZM13.2 19.7H10.8V17.3H13.2V19.7ZM8.39995 19.7H5.99995V17.3H8.39995V19.7ZM18 14.9H15.6V12.5H18V14.9ZM13.2 14.9H10.8V12.5H13.2V14.9ZM8.39995 14.9H5.99995V12.5H8.39995V14.9Z" fill="white"/>
</svg>
